{
  "id": "nodebb-theme-linh-custom",
  "name": "Theme Linh Custom",
  "description": "linh theme custom",
  "url": "https://gitlab.com/mrlinh98/theme-persona-linh-custom",
  "screenshot": "screenshot.png"
}
